{
    "modules": [],
    "properties": {
        "backendModules": [],
        "description": "",
        "emConf": {
            "category": "plugin",
            "custom_category": "",
            "dependsOn": "typo3 => 10.4.0-11.9.99\n",
            "disableLocalization": false,
            "disableVersioning": false,
            "skipGenerateDocumentationTemplate": false,
            "sourceLanguage": "en",
            "state": "stable",
            "targetVersion": "10.4.0-11.9.99",
            "version": "11.0.0"
        },
        "extensionKey": "hive_cpt_nav",
        "name": "hive_cpt_nav",
        "originalExtensionKey": "hive_cpt_nav",
        "originalVendorName": "HIVE",
        "persons": [
            {
                "company": "teufels GmbH",
                "email": "a.hafner@teufels.com",
                "name": "Andreas Hafner",
                "role": "Developer"
            },
            {
                "company": "teufels GmbH",
                "email": "a.neher@teufels.com",
                "name": "Alexander Neher",
                "role": "Developer"
            },
            {
                "company": "teufels GmbH",
                "email": "h.krueger@teufels.com",
                "name": "Hendrik Krueger",
                "role": "Developer"
            },
            {
                "company": "teufels GmbH",
                "email": "m.weber@teufels.com",
                "name": "Marcel Weber",
                "role": "Developer"
            },
            {
                "company": "teufels GmbH",
                "email": "b.holzem@teufels.com",
                "name": "Bastian Holzem",
                "role": "Developer"
            },
            {
                "company": "teufels GmbH",
                "email": "t.bittner@teufels.com",
                "name": "Timo Bittner",
                "role": "Developer"
            }
        ],
        "plugins": [],
        "vendorName": "HIVE"
    },
    "wires": [],
    "log": {
        "last_modified": "2020-07-10 16:00",
        "extension_builder_version": "8.6.0",
        "be_user": " (1)"
    }
}